\relax 
\@writefile{toc}{\contentsline {section}{\numberline {1}Za\IeC {\l }o\.zenia dotycz\k ace z\IeC {\l }o\.zono\'sci obliczeniowej}{1}}
\@writefile{lot}{\contentsline {table}{\numberline {1}{\ignorespaces Z\IeC {\l }o\.zono\'sci obliczeniowe dla pojedynczego dodawania\relax }}{1}}
\providecommand*\caption@xref[2]{\@setref\relax\@undefined{#1}}
\newlabel{my-label}{{1}{1}}
\@writefile{toc}{\contentsline {section}{\numberline {2}Pomiary}{1}}
\@writefile{lot}{\contentsline {table}{\numberline {2}{\ignorespaces Pomiary czasu dodawania dla r\'o\.znej ilo\'sci danych\relax }}{1}}
\newlabel{my-label}{{2}{1}}
\@writefile{lof}{\contentsline {figure}{\numberline {1}{\ignorespaces Wykres\relax }}{1}}
\@writefile{toc}{\contentsline {section}{\numberline {3}Wnioski}{2}}
